<?xml version="1.0" standalone="no"?>
<!DOCTYPE svg PUBLIC "-//W3C//DTD SVG 20010904//EN"
 "http://www.w3.org/TR/2001/REC-SVG-20010904/DTD/svg10.dtd">
<svg version="1.0" xmlns="http://www.w3.org/2000/svg"
 width="240.000000pt" height="242.000000pt" viewBox="0 0 240.000000 242.000000"
 preserveAspectRatio="xMidYMid meet">

<g transform="translate(0.000000,242.000000) scale(0.100000,-0.100000)"
fill="#000000" stroke="none">
<path d="M0 1210 l0 -1210 1200 0 1200 0 0 1210 0 1210 -1200 0 -1200 0 0
-1210z m1405 1005 c145 -40 315 -142 411 -248 154 -170 224 -362 224 -612 l0
-125 26 0 c16 0 39 -13 60 -34 l34 -34 0 -189 c0 -161 -2 -192 -17 -213 -23
-34 -43 -48 -76 -55 -17 -4 -33 -18 -43 -37 -41 -80 -214 -78 -264 4 -19 31
-20 46 -18 311 l3 279 33 29 c20 18 43 29 62 29 18 0 33 6 37 15 10 27 -16
221 -38 287 -67 202 -233 365 -444 435 -69 23 -96 27 -200 26 -102 0 -132 -4
-200 -26 -180 -59 -321 -179 -399 -339 -58 -119 -76 -189 -76 -305 l0 -93 31
0 c22 0 41 -10 65 -34 l34 -34 0 -274 c0 -256 -1 -275 -20 -306 -24 -40 -73
-62 -135 -62 -65 0 -114 23 -128 60 -8 22 -20 32 -42 36 -35 6 -55 20 -78 54
-15 21 -17 52 -17 213 l0 189 34 34 c20 20 44 34 59 34 l24 0 6 158 c6 184 24
259 92 392 121 233 329 389 595 446 82 17 282 11 365 -11z m135 -457 c0 -5
-14 -8 -31 -8 -16 0 -28 4 -25 9 7 11 56 9 56 -1z m-677 -30 c15 -8 18 -17 13
-43 -10 -53 9 -49 28 6 24 67 37 64 68 -16 l16 -40 -67 -1 c-37 -1 -72 3 -80
10 -11 8 -15 8 -18 -1 -3 -7 -11 -13 -19 -13 -10 0 -14 12 -14 40 0 29 -4 40
-15 40 -11 0 -15 -11 -15 -40 0 -29 -4 -40 -15 -40 -11 0 -15 11 -15 40 0 29
-4 40 -15 40 -15 0 -20 12 -9 23 10 10 137 6 157 -5z m201 -31 c3 4 6 13 6 22
0 12 11 16 45 17 32 1 45 -3 45 -13 0 -7 -7 -13 -15 -13 -23 0 -18 -14 10 -27
24 -11 25 -10 25 23 0 38 14 44 32 14 15 -24 28 -26 28 -5 0 18 -9 16 113 19
92 2 136 -8 88 -21 -24 -6 -29 -23 -6 -23 7 0 18 -8 24 -17 8 -16 11 -15 20
10 6 16 11 32 11 37 0 16 21 22 35 10 7 -6 17 -24 20 -40 3 -16 12 -33 19 -39
9 -8 11 -2 8 24 -5 43 30 71 71 56 42 -16 48 -83 8 -96 -32 -10 -101 -14 -105
-6 -3 4 -71 6 -151 3 -101 -3 -145 -1 -145 7 0 13 -36 15 -44 3 -2 -4 -35 -9
-72 -10 -61 -3 -70 0 -86 20 l-18 23 0 -22 c0 -14 -6 -23 -15 -23 -11 0 -15
12 -15 48 0 61 9 70 36 38 12 -13 25 -22 28 -19z m-373 -109 l18 -23 1 23 c0
13 6 22 15 22 8 0 15 -7 15 -17 0 -15 1 -15 18 0 28 26 69 21 88 -8 35 -53
-27 -106 -81 -71 -22 14 -25 15 -25 1 0 -24 -29 -17 -42 10 -15 32 -28 32 -28
-1 0 -49 -25 -19 -28 34 -3 43 0 52 13 52 9 0 25 -10 36 -22z m309 -31 c19
-55 30 -52 30 10 0 40 2 43 28 43 15 0 33 -5 39 -11 8 -8 13 -8 17 0 14 23 26
10 26 -28 0 -30 4 -40 19 -44 27 -7 31 0 31 45 0 21 5 38 10 38 6 0 10 -7 10
-15 0 -8 4 -15 9 -15 5 0 14 7 21 15 13 16 38 19 64 9 26 -10 18 -24 -14 -24
-18 0 -33 -6 -37 -15 -8 -21 0 -27 41 -30 32 -3 36 0 50 36 9 21 22 39 29 39
7 0 21 -23 31 -50 18 -51 16 -74 -6 -52 -14 14 -48 16 -48 4 0 -5 -21 -9 -46
-10 -32 0 -51 5 -65 19 -24 24 -29 24 -29 -2 0 -18 -5 -20 -47 -17 -43 3 -48
6 -47 26 0 17 -3 21 -15 16 -9 -3 -24 -9 -33 -11 -10 -3 -18 -11 -18 -18 0 -6
-13 -12 -30 -13 -16 0 -30 4 -30 9 0 13 -34 11 -47 -2 -25 -25 -30 -2 -11 49
25 66 45 66 68 -1z m515 33 c0 -9 -10 -14 -30 -15 -23 0 -30 -5 -30 -20 0 -17
7 -20 39 -20 36 0 40 3 51 35 17 52 43 46 66 -15 23 -60 22 -55 4 -55 -8 0
-15 5 -15 10 0 13 -37 13 -46 -1 -3 -6 -15 -9 -25 -6 -11 3 -25 -1 -33 -8 -11
-11 -18 -9 -45 15 -35 33 -38 46 -15 78 12 17 24 22 47 20 20 -2 32 -9 32 -18z
m209 4 c25 -24 20 -61 -10 -81 -24 -15 -29 -15 -53 -2 -32 18 -39 54 -15 80
21 23 57 25 78 3z m-552 -651 c3 -40 6 -48 23 -48 17 0 20 8 23 48 2 26 5 47
8 47 2 0 19 -6 37 -14 42 -17 83 -66 97 -114 16 -60 15 -62 -40 -62 -46 0 -50
-2 -50 -24 0 -23 5 -25 48 -28 39 -3 47 -6 47 -23 0 -17 -8 -20 -47 -23 -43
-3 -48 -5 -48 -28 0 -22 4 -24 51 -24 47 0 50 -2 47 -22 -3 -23 -5 -23 -170
-26 l-168 -2 0 25 c0 23 4 25 45 25 41 0 45 2 45 25 0 23 -4 25 -45 25 -41 0
-45 2 -45 25 0 23 4 25 45 25 41 0 45 2 45 25 0 23 -4 25 -45 25 -45 0 -45 0
-45 35 0 40 18 81 46 107 20 17 74 48 86 48 4 0 8 -21 10 -47z m-190 -395 c3
-56 10 -96 23 -122 57 -114 215 -150 317 -73 64 49 82 88 88 187 5 80 6 85 29
88 23 4 23 3 19 -85 -4 -103 -22 -147 -85 -210 -29 -30 -58 -47 -97 -58 -48
-14 -56 -20 -56 -41 0 -22 4 -24 50 -24 47 0 50 -2 50 -25 l0 -25 -120 0 -120
0 0 25 c0 23 4 25 46 25 43 0 45 1 42 27 -2 22 -10 29 -35 34 -44 9 -114 52
-139 86 -44 60 -57 97 -62 185 l-5 88 26 0 c24 0 25 -2 29 -82z m388 -10 c0
-35 -24 -92 -51 -123 -95 -108 -289 -41 -289 100 l0 35 170 0 c129 0 170 -3
170 -12z"/>
<path d="M820 1694 c0 -17 22 -14 28 4 2 7 -3 12 -12 12 -9 0 -16 -7 -16 -16z"/>
<path d="M1368 1693 c12 -8 22 -22 22 -29 0 -8 9 -14 20 -14 11 0 20 4 20 9 0
5 -9 13 -20 16 -11 3 -20 13 -20 21 0 8 -9 14 -22 13 l-23 0 23 -16z"/>
<path d="M1613 1703 c-21 -8 -15 -43 6 -43 11 0 23 5 27 11 8 14 -17 38 -33
32z"/>
<path d="M1090 1665 c0 -9 9 -15 25 -15 28 0 34 15 9 24 -25 10 -34 7 -34 -9z"/>
<path d="M1320 1665 c0 -8 9 -15 20 -15 24 0 27 15 4 24 -22 9 -24 8 -24 -9z"/>
<path d="M774 1569 c-3 -6 1 -18 10 -27 15 -15 17 -15 32 0 19 19 11 38 -16
38 -10 0 -22 -5 -26 -11z"/>
<path d="M1056 1583 c-11 -11 -6 -23 9 -23 8 0 15 4 15 9 0 13 -16 22 -24 14z"/>
<path d="M1664 1565 c-4 -9 -2 -21 4 -27 15 -15 44 -1 40 19 -4 23 -36 29 -44
8z"/>
</g>
</svg>
